Lab Dig/Projeto/Semana 3/Relatório/tb_logica_notas_prioridade.vcd
$date
	Tue Mar 31 00:01:12 2026
$end
$version
	Icarus Verilog
$end
$timescale
	1ns
$end
$scope module tb_logica_notas_prioridade $end
$var wire 1 ! tem_nota $end
$var wire 3 " nota_id [2:0] $end
$var reg 7 # botoes [6:0] $end
$var reg 1 $ clock $end
$var reg 1 % reset $end
$scope module dut $end
$var wire 7 & botoes [6:0] $end
$var wire 1 $ clock $end
$var wire 1 % reset $end
$var wire 1 ! tem_nota $end
$var reg 7 ' botoes_ant [6:0] $end
$var reg 3 ( nota_id [2:0] $end
$upscope $end
$upscope $end
$enddefinitions $end
$comment Show the parameter values. $end
$dumpall
$end
#0
$dumpvars
b0 (
b0 '
b0 &
1%
0$
b0 #
b0 "
0!
$end
#10
1$
#20
0$
#25
0%
#30
1$
#40
0$
#45
1!
b1 #
b1 &
#50
b1 "
b1 (
b1 '
1$
#60
0$
#70
1$
#80
0$
#85
b101 #
b101 &
#90
b11 "
b11 (
b101 '
1$
#100
0$
#110
1$
#120
0$
#125
b111 #
b111 &
#130
b10 "
b10 (
b111 '
1$
#140
0$
#150
1$
#160
0$
#165
b101 #
b101 &
#170
b11 "
b11 (
b101 '
1$
#180
0$
#190
1$
#200
0$
#205
0!
b0 #
b0 &
#210
b0 '
1$
